{
  "project_info": {
    "project_number": "392563359616",
    "firebase_url": "https://infinite-badge-204509.firebaseio.com",
    "project_id": "infinite-badge-204509",
    "storage_bucket": "infinite-badge-204509.appspot.com"
  },
  "client": [
    {
      "client_info": {
        "mobilesdk_app_id": "1:392563359616:android:ee10ada2c8317b12804b65",
        "android_client_info": {
          "package_name": "com.imjover.itinerarymaker.agency"
        }
      },
      "oauth_client": [
        {
          "client_id": "392563359616-a1lcj13kdkft7ojotsk1ishh21jse2tl.apps.googleusercontent.com",
          "client_type": 1,
          "android_info": {
            "package_name": "com.imjover.itinerarymaker.agency",
            "certificate_hash": "88c6ccfbb1eddee78ae92d9a4e1d61ea8793e1b0"
          }
        },
        {
          "client_id": "392563359616-vauh89ccaoh1fauvn37j1gn0chnq20i6.apps.googleusercontent.com",
          "client_type": 3
        }
      ],
      "api_key": [
        {
          "current_key": "AIzaSyDl3TRY5pQNwklZZo5P_vvbUxXE5d7q4ns"
        },
        {
          "current_key": "AIzaSyBcTtRlg8En7nyeVdPyal6pKwGM1CLKsPw"
        }
      ],
      "services": {
        "appinvite_service": {
          "other_platform_oauth_client": [
            {
              "client_id": "392563359616-vauh89ccaoh1fauvn37j1gn0chnq20i6.apps.googleusercontent.com",
              "client_type": 3
            }
          ]
        }
      }
    },
    {
      "client_info": {
        "mobilesdk_app_id": "1:392563359616:android:dc7eee4ba1ab45bb804b65",
        "android_client_info": {
          "package_name": "com.imjover.itinerarymaker.agency.debug"
        }
      },
      "oauth_client": [
        {
          "client_id": "392563359616-o0mc62p9cltaqr9jpqjaoqg6e59pvt51.apps.googleusercontent.com",
          "client_type": 1,
          "android_info": {
            "package_name": "com.imjover.itinerarymaker.agency.debug",
            "certificate_hash": "88c6ccfbb1eddee78ae92d9a4e1d61ea8793e1b0"
          }
        },
        {
          "client_id": "392563359616-vauh89ccaoh1fauvn37j1gn0chnq20i6.apps.googleusercontent.com",
          "client_type": 3
        }
      ],
      "api_key": [
        {
          "current_key": "AIzaSyDl3TRY5pQNwklZZo5P_vvbUxXE5d7q4ns"
        },
        {
          "current_key": "AIzaSyBcTtRlg8En7nyeVdPyal6pKwGM1CLKsPw"
        }
      ],
      "services": {
        "appinvite_service": {
          "other_platform_oauth_client": [
            {
              "client_id": "392563359616-vauh89ccaoh1fauvn37j1gn0chnq20i6.apps.googleusercontent.com",
              "client_type": 3
            }
          ]
        }
      }
    }
  ],
  "configuration_version": "1"
}